// Jest Snapshot v1, https://goo.gl/fbAQLP

exports[`<CommentButton /> <CommentButton /> should render 1`] = `
<Icon
  allowFontScaling={false}
  color="#262626"
  name="message-circle"
  onPress={[Function]}
  size={65}
  style={
    Object {
      "margin": 5,
      "marginLeft": 0,
    }
  }
/>
`;
