// Jest Snapshot v1, https://goo.gl/fbAQLP

exports[`<PostBottom /> <PostBottom /> should render 1`] = `
<Component
  style={
    Object {
      "marginTop": 4,
      "paddingLeft": 22,
      "paddingRight": 22,
    }
  }
>
  <CaptionText
    style={Object {}}
  >
    9 days ago
  </CaptionText>
</Component>
`;
