// Jest Snapshot v1, https://goo.gl/fbAQLP

exports[`testing search_actions running ON_CATEGORIES_CHANGE with a new category 1`] = `
Array [
  Object {
    "payload": "new category",
    "type": "ON_CATEGORIES_CHANGE",
  },
]
`;

exports[`testing search_actions running ON_FRIEND_SEARCH_TEXT_CHANGE with search query 1`] = `
Array [
  Object {
    "payload": "search query",
    "type": "ON_FRIEND_SEARCH_TEXT_CHANGE",
  },
]
`;

exports[`testing search_actions running ON_SEARCH_CLEAR 1`] = `
Array [
  Object {
    "type": "ON_SEARCH_CLEAR",
  },
]
`;

exports[`testing search_actions running ON_SEARCH_TEXT_CHANGE with search query 1`] = `
Array [
  Object {
    "payload": "search query",
    "type": "ON_SEARCH_TEXT_CHANGE",
  },
]
`;

exports[`testing search_actions running ON_STATUSES_CHANGE with a new status 1`] = `
Array [
  Object {
    "payload": "new status",
    "type": "ON_STATUSES_CHANGE",
  },
]
`;
